{
  "count": 96,
  "result": [
    {
      "native_vlan": 1,
      "link_state": "down",
      "port_security_enabled": false,
      "speed": {
        "current": 10000,
        "permitted": [
          10000,
          1000
        ]
      },
      "switch_name": "E0:39:D7:90:12:00",
      "read_only": false,
      "uuid": "03734100040c0000085010aa0b14c7a7",
      "access_port": true,
      "vlan_group_uuids": [],
      "description": "",
      "switch_uuid": "0373410004190000dbbdf69d0053d09b",
      "admin_state": "disabled",
      "qsfp_mode": "not_applicable",
      "vlans": "",
      "port_label": 8,
      "name": "",
      "permitted_qsfp_modes": [],
      "ungrouped_vlans": ""
    },
    {
      "native_vlan": 1,
      "link_state": "down",
      "port_security_enabled": false,
      "speed": {
        "current": 10000,
        "permitted": [
          10000,
          1000
        ]
      },
      "switch_name": "E0:39:D7:90:12:00",
      "read_only": false,
      "uuid": "03734100040c00000c9eaa6f2b02ab92",
      "access_port": true,
      "vlan_group_uuids": [],
      "description": "",
      "switch_uuid": "0373410004190000dbbdf69d0053d09b",
      "admin_state": "disabled",
      "qsfp_mode": "not_applicable",
      "vlans": "",
      "port_label": 1,
      "name": "",
      "permitted_qsfp_modes": [],
      "ungrouped_vlans": ""
    },
    {
      "native_vlan": 1,
      "link_state": "down",
      "port_security_enabled": false,
      "speed": {
        "current": 10000,
        "permitted": [
          10000,
          1000
        ]
      },
      "switch_name": "E0:39:D7:90:13:00",
      "read_only": false,
      "uuid": "03734100040c00000e108cfef20fec2a",
      "access_port": true,
      "vlan_group_uuids": [],
      "description": "",
      "switch_uuid": "03734100041900000da7e9a28f47d930",
      "admin_state": "disabled",
      "qsfp_mode": "not_applicable",
      "vlans": "",
      "port_label": 24,
      "name": "",
      "permitted_qsfp_modes": [],
      "ungrouped_vlans": ""
    },
    {
      "native_vlan": 1,
      "link_state": "down",
      "port_security_enabled": false,
      "speed": {
        "current": 10000,
        "permitted": [
          10000,
          1000
        ]
      },
      "switch_name": "E0:39:D7:90:12:00",
      "read_only": false,
      "uuid": "03734100040c00000f37a6fda544df2d",
      "access_port": true,
      "vlan_group_uuids": [],
      "description": "",
      "switch_uuid": "0373410004190000dbbdf69d0053d09b",
      "admin_state": "disabled",
      "qsfp_mode": "not_applicable",
      "vlans": "",
      "port_label": 44,
      "name": "",
      "permitted_qsfp_modes": [],
      "ungrouped_vlans": ""
    },
    {
      "native_vlan": 1,
      "link_state": "down",
      "port_security_enabled": false,
      "speed": {
        "current": 10000,
        "permitted": [
          10000,
          1000
        ]
      },
      "switch_name": "E0:39:D7:90:13:00",
      "read_only": false,
      "uuid": "03734100040c000012926cd48e7522a5",
      "access_port": true,
      "vlan_group_uuids": [],
      "description": "",
      "switch_uuid": "03734100041900000da7e9a28f47d930",
      "admin_state": "disabled",
      "qsfp_mode": "not_applicable",
      "vlans": "",
      "port_label": 44,
      "name": "",
      "permitted_qsfp_modes": [],
      "ungrouped_vlans": ""
    },
    {
      "native_vlan": 1,
      "link_state": "down",
      "port_security_enabled": false,
      "speed": {
        "current": 10000,
        "permitted": [
          10000,
          1000
        ]
      },
      "switch_name": "E0:39:D7:90:12:00",
      "read_only": false,
      "uuid": "03734100040c000012cd3d38ef1e6a86",
      "access_port": true,
      "vlan_group_uuids": [],
      "description": "",
      "switch_uuid": "0373410004190000dbbdf69d0053d09b",
      "admin_state": "disabled",
      "qsfp_mode": "not_applicable",
      "vlans": "",
      "port_label": 18,
      "name": "",
      "permitted_qsfp_modes": [],
      "ungrouped_vlans": ""
    },
    {
      "native_vlan": 1,
      "link_state": "down",
      "port_security_enabled": false,
      "speed": {
        "current": 10000,
        "permitted": [
          10000,
          1000
        ]
      },
      "switch_name": "E0:39:D7:90:13:00",
      "read_only": false,
      "uuid": "03734100040c000023bee39b79af1937",
      "access_port": true,
      "vlan_group_uuids": [],
      "description": "",
      "switch_uuid": "03734100041900000da7e9a28f47d930",
      "admin_state": "disabled",
      "qsfp_mode": "not_applicable",
      "vlans": "",
      "port_label": 13,
      "name": "",
      "permitted_qsfp_modes": [],
      "ungrouped_vlans": ""
    },
    {
      "native_vlan": 1,
      "link_state": "down",
      "port_security_enabled": false,
      "speed": {
        "current": 10000,
        "permitted": [
          10000,
          1000
        ]
      },
      "switch_name": "E0:39:D7:90:13:00",
      "read_only": false,
      "uuid": "03734100040c000025d1d5ecfad4db63",
      "access_port": true,
      "vlan_group_uuids": [],
      "description": "",
      "switch_uuid": "03734100041900000da7e9a28f47d930",
      "admin_state": "disabled",
      "qsfp_mode": "not_applicable",
      "vlans": "",
      "port_label": 4,
      "name": "",
      "permitted_qsfp_modes": [],
      "ungrouped_vlans": ""
    },
    {
      "native_vlan": 1,
      "link_state": "down",
      "port_security_enabled": false,
      "speed": {
        "current": 10000,
        "permitted": [
          10000,
          1000
        ]
      },
      "switch_name": "E0:39:D7:90:13:00",
      "read_only": false,
      "uuid": "03734100040c000025e04c0c91af1317",
      "access_port": true,
      "vlan_group_uuids": [],
      "description": "",
      "switch_uuid": "03734100041900000da7e9a28f47d930",
      "admin_state": "disabled",
      "qsfp_mode": "not_applicable",
      "vlans": "",
      "port_label": 34,
      "name": "",
      "permitted_qsfp_modes": [],
      "ungrouped_vlans": ""
    },
    {
      "native_vlan": 1,
      "link_state": "down",
      "port_security_enabled": false,
      "speed": {
        "current": 10000,
        "permitted": [
          10000,
          1000
        ]
      },
      "switch_name": "E0:39:D7:90:12:00",
      "read_only": false,
      "uuid": "03734100040c000026b837096cb438cc",
      "access_port": true,
      "vlan_group_uuids": [],
      "description": "",
      "switch_uuid": "0373410004190000dbbdf69d0053d09b",
      "admin_state": "disabled",
      "qsfp_mode": "not_applicable",
      "vlans": "",
      "port_label": 35,
      "name": "",
      "permitted_qsfp_modes": [],
      "ungrouped_vlans": ""
    },
    {
      "native_vlan": 1,
      "link_state": "down",
      "port_security_enabled": false,
      "speed": {
        "current": 10000,
        "permitted": [
          10000,
          1000
        ]
      },
      "switch_name": "E0:39:D7:90:13:00",
      "read_only": false,
      "uuid": "03734100040c000027ca8a08a299e8bb",
      "access_port": true,
      "vlan_group_uuids": [],
      "description": "",
      "switch_uuid": "03734100041900000da7e9a28f47d930",
      "admin_state": "disabled",
      "qsfp_mode": "not_applicable",
      "vlans": "",
      "port_label": 10,
      "name": "",
      "permitted_qsfp_modes": [],
      "ungrouped_vlans": ""
    },
    {
      "native_vlan": 1,
      "link_state": "down",
      "port_security_enabled": false,
      "speed": {
        "current": 10000,
        "permitted": [
          10000,
          1000
        ]
      },
      "switch_name": "E0:39:D7:90:12:00",
      "read_only": false,
      "uuid": "03734100040c000029c1f7b7fbab2348",
      "access_port": true,
      "vlan_group_uuids": [],
      "description": "",
      "switch_uuid": "0373410004190000dbbdf69d0053d09b",
      "admin_state": "disabled",
      "qsfp_mode": "not_applicable",
      "vlans": "",
      "port_label": 32,
      "name": "",
      "permitted_qsfp_modes": [],
      "ungrouped_vlans": ""
    },
    {
      "native_vlan": 1,
      "link_state": "down",
      "port_security_enabled": false,
      "speed": {
        "current": 10000,
        "permitted": [
          10000,
          1000
        ]
      },
      "switch_name": "E0:39:D7:90:13:00",
      "read_only": false,
      "uuid": "03734100040c00002eba82dda9361f06",
      "access_port": true,
      "vlan_group_uuids": [],
      "description": "",
      "switch_uuid": "03734100041900000da7e9a28f47d930",
      "admin_state": "disabled",
      "qsfp_mode": "not_applicable",
      "vlans": "",
      "port_label": 2,
      "name": "",
      "permitted_qsfp_modes": [],
      "ungrouped_vlans": ""
    },
    {
      "native_vlan": 1,
      "link_state": "down",
      "port_security_enabled": false,
      "speed": {
        "current": 10000,
        "permitted": [
          10000,
          1000
        ]
      },
      "switch_name": "E0:39:D7:90:12:00",
      "read_only": false,
      "uuid": "03734100040c0000317f67200d3cb4fe",
      "access_port": true,
      "vlan_group_uuids": [],
      "description": "",
      "switch_uuid": "0373410004190000dbbdf69d0053d09b",
      "admin_state": "disabled",
      "qsfp_mode": "not_applicable",
      "vlans": "",
      "port_label": 11,
      "name": "",
      "permitted_qsfp_modes": [],
      "ungrouped_vlans": ""
    },
    {
      "native_vlan": 1,
      "link_state": "down",
      "port_security_enabled": false,
      "speed": {
        "current": 10000,
        "permitted": [
          10000,
          1000
        ]
      },
      "switch_name": "E0:39:D7:90:13:00",
      "read_only": false,
      "uuid": "03734100040c00003aa101ced2bfb394",
      "access_port": true,
      "vlan_group_uuids": [],
      "description": "",
      "switch_uuid": "03734100041900000da7e9a28f47d930",
      "admin_state": "disabled",
      "qsfp_mode": "not_applicable",
      "vlans": "",
      "port_label": 1,
      "name": "",
      "permitted_qsfp_modes": [],
      "ungrouped_vlans": ""
    },
    {
      "native_vlan": 1,
      "link_state": "down",
      "port_security_enabled": false,
      "speed": {
        "current": 10000,
        "permitted": [
          10000,
          1000
        ]
      },
      "switch_name": "E0:39:D7:90:12:00",
      "read_only": false,
      "uuid": "03734100040c00003befe9748fdad52b",
      "access_port": true,
      "vlan_group_uuids": [],
      "description": "",
      "switch_uuid": "0373410004190000dbbdf69d0053d09b",
      "admin_state": "disabled",
      "qsfp_mode": "not_applicable",
      "vlans": "",
      "port_label": 14,
      "name": "",
      "permitted_qsfp_modes": [],
      "ungrouped_vlans": ""
    },
    {
      "native_vlan": 1,
      "link_state": "down",
      "port_security_enabled": false,
      "speed": {
        "current": 10000,
        "permitted": [
          10000,
          1000
        ]
      },
      "switch_name": "E0:39:D7:90:12:00",
      "read_only": false,
      "uuid": "03734100040c00003e329879b643e053",
      "access_port": true,
      "vlan_group_uuids": [],
      "description": "",
      "switch_uuid": "0373410004190000dbbdf69d0053d09b",
      "admin_state": "disabled",
      "qsfp_mode": "not_applicable",
      "vlans": "",
      "port_label": 43,
      "name": "",
      "permitted_qsfp_modes": [],
      "ungrouped_vlans": ""
    },
    {
      "native_vlan": 1,
      "link_state": "down",
      "port_security_enabled": false,
      "speed": {
        "current": 10000,
        "permitted": [
          10000,
          1000
        ]
      },
      "switch_name": "E0:39:D7:90:13:00",
      "read_only": false,
      "uuid": "03734100040c00003f8e417a296f1f7f",
      "access_port": true,
      "vlan_group_uuids": [],
      "description": "",
      "switch_uuid": "03734100041900000da7e9a28f47d930",
      "admin_state": "disabled",
      "qsfp_mode": "not_applicable",
      "vlans": "",
      "port_label": 41,
      "name": "",
      "permitted_qsfp_modes": [],
      "ungrouped_vlans": ""
    },
    {
      "native_vlan": 1,
      "link_state": "down",
      "port_security_enabled": false,
      "speed": {
        "current": 10000,
        "permitted": [
          10000,
          1000
        ]
      },
      "switch_name": "E0:39:D7:90:13:00",
      "read_only": false,
      "uuid": "03734100040c00003fc7de1bd8962273",
      "access_port": true,
      "vlan_group_uuids": [],
      "description": "",
      "switch_uuid": "03734100041900000da7e9a28f47d930",
      "admin_state": "disabled",
      "qsfp_mode": "not_applicable",
      "vlans": "",
      "port_label": 17,
      "name": "",
      "permitted_qsfp_modes": [],
      "ungrouped_vlans": ""
    },
    {
      "native_vlan": 1,
      "link_state": "down",
      "port_security_enabled": false,
      "speed": {
        "current": 10000,
        "permitted": [
          10000,
          1000
        ]
      },
      "switch_name": "E0:39:D7:90:13:00",
      "read_only": false,
      "uuid": "03734100040c0000431b4357a279025e",
      "access_port": true,
      "vlan_group_uuids": [],
      "description": "",
      "switch_uuid": "03734100041900000da7e9a28f47d930",
      "admin_state": "disabled",
      "qsfp_mode": "not_applicable",
      "vlans": "",
      "port_label": 47,
      "name": "",
      "permitted_qsfp_modes": [],
      "ungrouped_vlans": ""
    },
    {
      "native_vlan": 1,
      "link_state": "down",
      "port_security_enabled": false,
      "speed": {
        "current": 10000,
        "permitted": [
          10000,
          1000
        ]
      },
      "switch_name": "E0:39:D7:90:13:00",
      "read_only": false,
      "uuid": "03734100040c000047232a09d9ac4af3",
      "access_port": true,
      "vlan_group_uuids": [],
      "description": "",
      "switch_uuid": "03734100041900000da7e9a28f47d930",
      "admin_state": "disabled",
      "qsfp_mode": "not_applicable",
      "vlans": "",
      "port_label": 43,
      "name": "",
      "permitted_qsfp_modes": [],
      "ungrouped_vlans": ""
    },
    {
      "native_vlan": 1,
      "link_state": "down",
      "port_security_enabled": false,
      "speed": {
        "current": 10000,
        "permitted": [
          10000,
          1000
        ]
      },
      "switch_name": "E0:39:D7:90:12:00",
      "read_only": false,
      "uuid": "03734100040c000048ddb21451acbd3a",
      "access_port": true,
      "vlan_group_uuids": [],
      "description": "",
      "switch_uuid": "0373410004190000dbbdf69d0053d09b",
      "admin_state": "disabled",
      "qsfp_mode": "not_applicable",
      "vlans": "",
      "port_label": 12,
      "name": "",
      "permitted_qsfp_modes": [],
      "ungrouped_vlans": ""
    },
    {
      "native_vlan": 1,
      "link_state": "down",
      "port_security_enabled": false,
      "speed": {
        "current": 10000,
        "permitted": [
          10000,
          1000
        ]
      },
      "switch_name": "E0:39:D7:90:12:00",
      "read_only": false,
      "uuid": "03734100040c00004c562beb4b8d02bd",
      "access_port": true,
      "vlan_group_uuids": [],
      "description": "",
      "switch_uuid": "0373410004190000dbbdf69d0053d09b",
      "admin_state": "disabled",
      "qsfp_mode": "not_applicable",
      "vlans": "",
      "port_label": 4,
      "name": "",
      "permitted_qsfp_modes": [],
      "ungrouped_vlans": ""
    },
    {
      "native_vlan": 1,
      "link_state": "down",
      "port_security_enabled": false,
      "speed": {
        "current": 10000,
        "permitted": [
          10000,
          1000
        ]
      },
      "switch_name": "E0:39:D7:90:12:00",
      "read_only": false,
      "uuid": "03734100040c00004da991a57e137c6b",
      "access_port": true,
      "vlan_group_uuids": [],
      "description": "",
      "switch_uuid": "0373410004190000dbbdf69d0053d09b",
      "admin_state": "disabled",
      "qsfp_mode": "not_applicable",
      "vlans": "",
      "port_label": 10,
      "name": "",
      "permitted_qsfp_modes": [],
      "ungrouped_vlans": ""
    },
    {
      "native_vlan": 1,
      "link_state": "down",
      "port_security_enabled": false,
      "speed": {
        "current": 10000,
        "permitted": [
          10000,
          1000
        ]
      },
      "switch_name": "E0:39:D7:90:13:00",
      "read_only": false,
      "uuid": "03734100040c00004fcf4ed70c4e145e",
      "access_port": true,
      "vlan_group_uuids": [],
      "description": "",
      "switch_uuid": "03734100041900000da7e9a28f47d930",
      "admin_state": "disabled",
      "qsfp_mode": "not_applicable",
      "vlans": "",
      "port_label": 14,
      "name": "",
      "permitted_qsfp_modes": [],
      "ungrouped_vlans": ""
    },
    {
      "native_vlan": 1,
      "link_state": "down",
      "port_security_enabled": false,
      "speed": {
        "current": 10000,
        "permitted": [
          10000,
          1000
        ]
      },
      "switch_name": "E0:39:D7:90:13:00",
      "read_only": false,
      "uuid": "03734100040c0000502d2e3b062bfbd9",
      "access_port": true,
      "vlan_group_uuids": [],
      "description": "",
      "switch_uuid": "03734100041900000da7e9a28f47d930",
      "admin_state": "disabled",
      "qsfp_mode": "not_applicable",
      "vlans": "",
      "port_label": 31,
      "name": "",
      "permitted_qsfp_modes": [],
      "ungrouped_vlans": ""
    },
    {
      "native_vlan": 1,
      "link_state": "down",
      "port_security_enabled": false,
      "speed": {
        "current": 10000,
        "permitted": [
          10000,
          1000
        ]
      },
      "switch_name": "E0:39:D7:90:12:00",
      "read_only": false,
      "uuid": "03734100040c00005462c97b33bfa70f",
      "access_port": true,
      "vlan_group_uuids": [],
      "description": "",
      "switch_uuid": "0373410004190000dbbdf69d0053d09b",
      "admin_state": "disabled",
      "qsfp_mode": "not_applicable",
      "vlans": "",
      "port_label": 25,
      "name": "",
      "permitted_qsfp_modes": [],
      "ungrouped_vlans": ""
    },
    {
      "native_vlan": 1,
      "link_state": "down",
      "port_security_enabled": false,
      "speed": {
        "current": 10000,
        "permitted": [
          10000,
          1000
        ]
      },
      "switch_name": "E0:39:D7:90:12:00",
      "read_only": false,
      "uuid": "03734100040c0000559a95d0713feed1",
      "access_port": true,
      "vlan_group_uuids": [],
      "description": "",
      "switch_uuid": "0373410004190000dbbdf69d0053d09b",
      "admin_state": "disabled",
      "qsfp_mode": "not_applicable",
      "vlans": "",
      "port_label": 39,
      "name": "",
      "permitted_qsfp_modes": [],
      "ungrouped_vlans": ""
    },
    {
      "native_vlan": 1,
      "link_state": "down",
      "port_security_enabled": false,
      "speed": {
        "current": 10000,
        "permitted": [
          10000,
          1000
        ]
      },
      "switch_name": "E0:39:D7:90:13:00",
      "read_only": false,
      "uuid": "03734100040c000055e8f5b45c7f4da7",
      "access_port": true,
      "vlan_group_uuids": [],
      "description": "",
      "switch_uuid": "03734100041900000da7e9a28f47d930",
      "admin_state": "disabled",
      "qsfp_mode": "not_applicable",
      "vlans": "",
      "port_label": 15,
      "name": "",
      "permitted_qsfp_modes": [],
      "ungrouped_vlans": ""
    },
    {
      "native_vlan": 1,
      "link_state": "down",
      "port_security_enabled": false,
      "speed": {
        "current": 10000,
        "permitted": [
          10000,
          1000
        ]
      },
      "switch_name": "E0:39:D7:90:12:00",
      "read_only": false,
      "uuid": "03734100040c000057ed7601643809f1",
      "access_port": true,
      "vlan_group_uuids": [],
      "description": "",
      "switch_uuid": "0373410004190000dbbdf69d0053d09b",
      "admin_state": "disabled",
      "qsfp_mode": "not_applicable",
      "vlans": "",
      "port_label": 7,
      "name": "",
      "permitted_qsfp_modes": [],
      "ungrouped_vlans": ""
    },
    {
      "native_vlan": 1,
      "link_state": "down",
      "port_security_enabled": false,
      "speed": {
        "current": 10000,
        "permitted": [
          10000,
          1000
        ]
      },
      "switch_name": "E0:39:D7:90:13:00",
      "read_only": false,
      "uuid": "03734100040c00005e5df789343aa7af",
      "access_port": true,
      "vlan_group_uuids": [],
      "description": "",
      "switch_uuid": "03734100041900000da7e9a28f47d930",
      "admin_state": "disabled",
      "qsfp_mode": "not_applicable",
      "vlans": "",
      "port_label": 5,
      "name": "",
      "permitted_qsfp_modes": [],
      "ungrouped_vlans": ""
    },
    {
      "native_vlan": 1,
      "link_state": "down",
      "port_security_enabled": false,
      "speed": {
        "current": 10000,
        "permitted": [
          10000,
          1000
        ]
      },
      "switch_name": "E0:39:D7:90:12:00",
      "read_only": false,
      "uuid": "03734100040c0000640d8640f939f170",
      "access_port": true,
      "vlan_group_uuids": [],
      "description": "",
      "switch_uuid": "0373410004190000dbbdf69d0053d09b",
      "admin_state": "disabled",
      "qsfp_mode": "not_applicable",
      "vlans": "",
      "port_label": 19,
      "name": "",
      "permitted_qsfp_modes": [],
      "ungrouped_vlans": ""
    },
    {
      "native_vlan": 1,
      "link_state": "down",
      "port_security_enabled": false,
      "speed": {
        "current": 10000,
        "permitted": [
          10000,
          1000
        ]
      },
      "switch_name": "E0:39:D7:90:13:00",
      "read_only": false,
      "uuid": "03734100040c0000697ba62e09c48839",
      "access_port": true,
      "vlan_group_uuids": [],
      "description": "",
      "switch_uuid": "03734100041900000da7e9a28f47d930",
      "admin_state": "disabled",
      "qsfp_mode": "not_applicable",
      "vlans": "",
      "port_label": 23,
      "name": "",
      "permitted_qsfp_modes": [],
      "ungrouped_vlans": ""
    },
    {
      "native_vlan": 1,
      "link_state": "down",
      "port_security_enabled": false,
      "speed": {
        "current": 10000,
        "permitted": [
          10000,
          1000
        ]
      },
      "switch_name": "E0:39:D7:90:13:00",
      "read_only": false,
      "uuid": "03734100040c00006cfc6c8fc4dbea29",
      "access_port": true,
      "vlan_group_uuids": [],
      "description": "",
      "switch_uuid": "03734100041900000da7e9a28f47d930",
      "admin_state": "disabled",
      "qsfp_mode": "not_applicable",
      "vlans": "",
      "port_label": 27,
      "name": "",
      "permitted_qsfp_modes": [],
      "ungrouped_vlans": ""
    },
    {
      "native_vlan": 1,
      "link_state": "down",
      "port_security_enabled": false,
      "speed": {
        "current": 10000,
        "permitted": [
          10000,
          1000
        ]
      },
      "switch_name": "E0:39:D7:90:12:00",
      "read_only": false,
      "uuid": "03734100040c00006d0ad975f3332e36",
      "access_port": true,
      "vlan_group_uuids": [],
      "description": "",
      "switch_uuid": "0373410004190000dbbdf69d0053d09b",
      "admin_state": "disabled",
      "qsfp_mode": "not_applicable",
      "vlans": "",
      "port_label": 30,
      "name": "",
      "permitted_qsfp_modes": [],
      "ungrouped_vlans": ""
    },
    {
      "native_vlan": 1,
      "link_state": "down",
      "port_security_enabled": false,
      "speed": {
        "current": 10000,
        "permitted": [
          10000,
          1000
        ]
      },
      "switch_name": "E0:39:D7:90:13:00",
      "read_only": false,
      "uuid": "03734100040c00006ddbf26fac8d395b",
      "access_port": true,
      "vlan_group_uuids": [],
      "description": "",
      "switch_uuid": "03734100041900000da7e9a28f47d930",
      "admin_state": "disabled",
      "qsfp_mode": "not_applicable",
      "vlans": "",
      "port_label": 33,
      "name": "",
      "permitted_qsfp_modes": [],
      "ungrouped_vlans": ""
    },
    {
      "native_vlan": 1,
      "link_state": "down",
      "port_security_enabled": false,
      "speed": {
        "current": 10000,
        "permitted": [
          10000,
          1000
        ]
      },
      "switch_name": "E0:39:D7:90:13:00",
      "read_only": false,
      "uuid": "03734100040c00006eb22ab50f6be50a",
      "access_port": true,
      "vlan_group_uuids": [],
      "description": "",
      "switch_uuid": "03734100041900000da7e9a28f47d930",
      "admin_state": "disabled",
      "qsfp_mode": "not_applicable",
      "vlans": "",
      "port_label": 20,
      "name": "",
      "permitted_qsfp_modes": [],
      "ungrouped_vlans": ""
    },
    {
      "native_vlan": 1,
      "link_state": "down",
      "port_security_enabled": false,
      "speed": {
        "current": 10000,
        "permitted": [
          10000,
          1000
        ]
      },
      "switch_name": "E0:39:D7:90:13:00",
      "read_only": false,
      "uuid": "03734100040c000071a04df14703c821",
      "access_port": true,
      "vlan_group_uuids": [],
      "description": "",
      "switch_uuid": "03734100041900000da7e9a28f47d930",
      "admin_state": "disabled",
      "qsfp_mode": "not_applicable",
      "vlans": "",
      "port_label": 18,
      "name": "",
      "permitted_qsfp_modes": [],
      "ungrouped_vlans": ""
    },
    {
      "native_vlan": 1,
      "link_state": "down",
      "port_security_enabled": false,
      "speed": {
        "current": 10000,
        "permitted": [
          10000,
          1000
        ]
      },
      "switch_name": "E0:39:D7:90:12:00",
      "read_only": false,
      "uuid": "03734100040c000074d18220795f6eea",
      "access_port": true,
      "vlan_group_uuids": [],
      "description": "",
      "switch_uuid": "0373410004190000dbbdf69d0053d09b",
      "admin_state": "disabled",
      "qsfp_mode": "not_applicable",
      "vlans": "",
      "port_label": 48,
      "name": "",
      "permitted_qsfp_modes": [],
      "ungrouped_vlans": ""
    },
    {
      "native_vlan": 1,
      "link_state": "down",
      "port_security_enabled": false,
      "speed": {
        "current": 10000,
        "permitted": [
          10000,
          1000
        ]
      },
      "switch_name": "E0:39:D7:90:12:00",
      "read_only": false,
      "uuid": "03734100040c00007701c4e70a996ccc",
      "access_port": true,
      "vlan_group_uuids": [],
      "description": "",
      "switch_uuid": "0373410004190000dbbdf69d0053d09b",
      "admin_state": "disabled",
      "qsfp_mode": "not_applicable",
      "vlans": "",
      "port_label": 40,
      "name": "",
      "permitted_qsfp_modes": [],
      "ungrouped_vlans": ""
    },
    {
      "native_vlan": 1,
      "link_state": "down",
      "port_security_enabled": false,
      "speed": {
        "current": 10000,
        "permitted": [
          10000,
          1000
        ]
      },
      "switch_name": "E0:39:D7:90:12:00",
      "read_only": false,
      "uuid": "03734100040c0000778d21914e262286",
      "access_port": true,
      "vlan_group_uuids": [],
      "description": "",
      "switch_uuid": "0373410004190000dbbdf69d0053d09b",
      "admin_state": "disabled",
      "qsfp_mode": "not_applicable",
      "vlans": "",
      "port_label": 34,
      "name": "",
      "permitted_qsfp_modes": [],
      "ungrouped_vlans": ""
    },
    {
      "native_vlan": 1,
      "link_state": "down",
      "port_security_enabled": false,
      "speed": {
        "current": 10000,
        "permitted": [
          10000,
          1000
        ]
      },
      "switch_name": "E0:39:D7:90:12:00",
      "read_only": false,
      "uuid": "03734100040c00007896b597a79e1920",
      "access_port": true,
      "vlan_group_uuids": [],
      "description": "",
      "switch_uuid": "0373410004190000dbbdf69d0053d09b",
      "admin_state": "disabled",
      "qsfp_mode": "not_applicable",
      "vlans": "",
      "port_label": 15,
      "name": "",
      "permitted_qsfp_modes": [],
      "ungrouped_vlans": ""
    },
    {
      "native_vlan": 1,
      "link_state": "down",
      "port_security_enabled": false,
      "speed": {
        "current": 10000,
        "permitted": [
          10000,
          1000
        ]
      },
      "switch_name": "E0:39:D7:90:13:00",
      "read_only": false,
      "uuid": "03734100040c000079c04582a68a1db5",
      "access_port": true,
      "vlan_group_uuids": [],
      "description": "",
      "switch_uuid": "03734100041900000da7e9a28f47d930",
      "admin_state": "disabled",
      "qsfp_mode": "not_applicable",
      "vlans": "",
      "port_label": 45,
      "name": "",
      "permitted_qsfp_modes": [],
      "ungrouped_vlans": ""
    },
    {
      "native_vlan": 1,
      "link_state": "down",
      "port_security_enabled": false,
      "speed": {
        "current": 10000,
        "permitted": [
          10000,
          1000
        ]
      },
      "switch_name": "E0:39:D7:90:13:00",
      "read_only": false,
      "uuid": "03734100040c00007bacffde9e173226",
      "access_port": true,
      "vlan_group_uuids": [],
      "description": "",
      "switch_uuid": "03734100041900000da7e9a28f47d930",
      "admin_state": "disabled",
      "qsfp_mode": "not_applicable",
      "vlans": "",
      "port_label": 37,
      "name": "",
      "permitted_qsfp_modes": [],
      "ungrouped_vlans": ""
    },
    {
      "native_vlan": 1,
      "link_state": "down",
      "port_security_enabled": false,
      "speed": {
        "current": 10000,
        "permitted": [
          10000,
          1000
        ]
      },
      "switch_name": "E0:39:D7:90:12:00",
      "read_only": false,
      "uuid": "03734100040c00007bf1fefd6e976cde",
      "access_port": true,
      "vlan_group_uuids": [],
      "description": "",
      "switch_uuid": "0373410004190000dbbdf69d0053d09b",
      "admin_state": "disabled",
      "qsfp_mode": "not_applicable",
      "vlans": "",
      "port_label": 16,
      "name": "",
      "permitted_qsfp_modes": [],
      "ungrouped_vlans": ""
    },
    {
      "native_vlan": 1,
      "link_state": "down",
      "port_security_enabled": false,
      "speed": {
        "current": 10000,
        "permitted": [
          10000,
          1000
        ]
      },
      "switch_name": "E0:39:D7:90:13:00",
      "read_only": false,
      "uuid": "03734100040c00007c2434ad50b0b5bb",
      "access_port": true,
      "vlan_group_uuids": [],
      "description": "",
      "switch_uuid": "03734100041900000da7e9a28f47d930",
      "admin_state": "disabled",
      "qsfp_mode": "not_applicable",
      "vlans": "",
      "port_label": 21,
      "name": "",
      "permitted_qsfp_modes": [],
      "ungrouped_vlans": ""
    },
    {
      "native_vlan": 1,
      "link_state": "down",
      "port_security_enabled": false,
      "speed": {
        "current": 10000,
        "permitted": [
          10000,
          1000
        ]
      },
      "switch_name": "E0:39:D7:90:12:00",
      "read_only": false,
      "uuid": "03734100040c00007d4ce70df0b0c1e2",
      "access_port": true,
      "vlan_group_uuids": [],
      "description": "",
      "switch_uuid": "0373410004190000dbbdf69d0053d09b",
      "admin_state": "disabled",
      "qsfp_mode": "not_applicable",
      "vlans": "",
      "port_label": 27,
      "name": "",
      "permitted_qsfp_modes": [],
      "ungrouped_vlans": ""
    },
    {
      "native_vlan": 1,
      "link_state": "down",
      "port_security_enabled": false,
      "speed": {
        "current": 10000,
        "permitted": [
          10000,
          1000
        ]
      },
      "switch_name": "E0:39:D7:90:12:00",
      "read_only": false,
      "uuid": "03734100040c0000830ab8a3004a044b",
      "access_port": true,
      "vlan_group_uuids": [],
      "description": "",
      "switch_uuid": "0373410004190000dbbdf69d0053d09b",
      "admin_state": "disabled",
      "qsfp_mode": "not_applicable",
      "vlans": "",
      "port_label": 42,
      "name": "",
      "permitted_qsfp_modes": [],
      "ungrouped_vlans": ""
    },
    {
      "native_vlan": 1,
      "link_state": "down",
      "port_security_enabled": false,
      "speed": {
        "current": 10000,
        "permitted": [
          10000,
          1000
        ]
      },
      "switch_name": "E0:39:D7:90:13:00",
      "read_only": false,
      "uuid": "03734100040c000083337d586c46b910",
      "access_port": true,
      "vlan_group_uuids": [],
      "description": "",
      "switch_uuid": "03734100041900000da7e9a28f47d930",
      "admin_state": "disabled",
      "qsfp_mode": "not_applicable",
      "vlans": "",
      "port_label": 38,
      "name": "",
      "permitted_qsfp_modes": [],
      "ungrouped_vlans": ""
    },
    {
      "native_vlan": 1,
      "link_state": "down",
      "port_security_enabled": false,
      "speed": {
        "current": 10000,
        "permitted": [
          10000,
          1000
        ]
      },
      "switch_name": "E0:39:D7:90:13:00",
      "read_only": false,
      "uuid": "03734100040c000087ae4abac657c17a",
      "access_port": true,
      "vlan_group_uuids": [],
      "description": "",
      "switch_uuid": "03734100041900000da7e9a28f47d930",
      "admin_state": "disabled",
      "qsfp_mode": "not_applicable",
      "vlans": "",
      "port_label": 36,
      "name": "",
      "permitted_qsfp_modes": [],
      "ungrouped_vlans": ""
    },
    {
      "native_vlan": 1,
      "link_state": "down",
      "port_security_enabled": false,
      "speed": {
        "current": 10000,
        "permitted": [
          10000,
          1000
        ]
      },
      "switch_name": "E0:39:D7:90:13:00",
      "read_only": false,
      "uuid": "03734100040c000087f13bdfb818d130",
      "access_port": true,
      "vlan_group_uuids": [],
      "description": "",
      "switch_uuid": "03734100041900000da7e9a28f47d930",
      "admin_state": "disabled",
      "qsfp_mode": "not_applicable",
      "vlans": "",
      "port_label": 29,
      "name": "",
      "permitted_qsfp_modes": [],
      "ungrouped_vlans": ""
    },
    {
      "native_vlan": 1,
      "link_state": "down",
      "port_security_enabled": false,
      "speed": {
        "current": 10000,
        "permitted": [
          10000,
          1000
        ]
      },
      "switch_name": "E0:39:D7:90:12:00",
      "read_only": false,
      "uuid": "03734100040c000088637e149e5fb605",
      "access_port": true,
      "vlan_group_uuids": [],
      "description": "",
      "switch_uuid": "0373410004190000dbbdf69d0053d09b",
      "admin_state": "disabled",
      "qsfp_mode": "not_applicable",
      "vlans": "",
      "port_label": 33,
      "name": "",
      "permitted_qsfp_modes": [],
      "ungrouped_vlans": ""
    },
    {
      "native_vlan": 1,
      "link_state": "down",
      "port_security_enabled": false,
      "speed": {
        "current": 10000,
        "permitted": [
          10000,
          1000
        ]
      },
      "switch_name": "E0:39:D7:90:12:00",
      "read_only": false,
      "uuid": "03734100040c000088702acfd1f7585e",
      "access_port": true,
      "vlan_group_uuids": [],
      "description": "",
      "switch_uuid": "0373410004190000dbbdf69d0053d09b",
      "admin_state": "disabled",
      "qsfp_mode": "not_applicable",
      "vlans": "",
      "port_label": 38,
      "name": "",
      "permitted_qsfp_modes": [],
      "ungrouped_vlans": ""
    },
    {
      "native_vlan": 1,
      "link_state": "down",
      "port_security_enabled": false,
      "speed": {
        "current": 10000,
        "permitted": [
          10000,
          1000
        ]
      },
      "switch_name": "E0:39:D7:90:12:00",
      "read_only": false,
      "uuid": "03734100040c00008b975ffe9f8933ec",
      "access_port": true,
      "vlan_group_uuids": [],
      "description": "",
      "switch_uuid": "0373410004190000dbbdf69d0053d09b",
      "admin_state": "disabled",
      "qsfp_mode": "not_applicable",
      "vlans": "",
      "port_label": 26,
      "name": "",
      "permitted_qsfp_modes": [],
      "ungrouped_vlans": ""
    },
    {
      "native_vlan": 1,
      "link_state": "down",
      "port_security_enabled": false,
      "speed": {
        "current": 10000,
        "permitted": [
          10000,
          1000
        ]
      },
      "switch_name": "E0:39:D7:90:12:00",
      "read_only": false,
      "uuid": "03734100040c00008e7db05eb0a1f863",
      "access_port": true,
      "vlan_group_uuids": [],
      "description": "",
      "switch_uuid": "0373410004190000dbbdf69d0053d09b",
      "admin_state": "disabled",
      "qsfp_mode": "not_applicable",
      "vlans": "",
      "port_label": 24,
      "name": "",
      "permitted_qsfp_modes": [],
      "ungrouped_vlans": ""
    },
    {
      "native_vlan": 1,
      "link_state": "down",
      "port_security_enabled": false,
      "speed": {
        "current": 10000,
        "permitted": [
          10000,
          1000
        ]
      },
      "switch_name": "E0:39:D7:90:12:00",
      "read_only": false,
      "uuid": "03734100040c0000914021a5bea62049",
      "access_port": true,
      "vlan_group_uuids": [],
      "description": "",
      "switch_uuid": "0373410004190000dbbdf69d0053d09b",
      "admin_state": "disabled",
      "qsfp_mode": "not_applicable",
      "vlans": "",
      "port_label": 47,
      "name": "",
      "permitted_qsfp_modes": [],
      "ungrouped_vlans": ""
    },
    {
      "native_vlan": 1,
      "link_state": "down",
      "port_security_enabled": false,
      "speed": {
        "current": 10000,
        "permitted": [
          10000,
          1000
        ]
      },
      "switch_name": "E0:39:D7:90:12:00",
      "read_only": false,
      "uuid": "03734100040c0000929344d2b9ef3d76",
      "access_port": true,
      "vlan_group_uuids": [],
      "description": "",
      "switch_uuid": "0373410004190000dbbdf69d0053d09b",
      "admin_state": "disabled",
      "qsfp_mode": "not_applicable",
      "vlans": "",
      "port_label": 22,
      "name": "",
      "permitted_qsfp_modes": [],
      "ungrouped_vlans": ""
    },
    {
      "native_vlan": 1,
      "link_state": "down",
      "port_security_enabled": false,
      "speed": {
        "current": 10000,
        "permitted": [
          10000,
          1000
        ]
      },
      "switch_name": "E0:39:D7:90:13:00",
      "read_only": false,
      "uuid": "03734100040c000092c3a287193425a7",
      "access_port": true,
      "vlan_group_uuids": [],
      "description": "",
      "switch_uuid": "03734100041900000da7e9a28f47d930",
      "admin_state": "disabled",
      "qsfp_mode": "not_applicable",
      "vlans": "",
      "port_label": 42,
      "name": "",
      "permitted_qsfp_modes": [],
      "ungrouped_vlans": ""
    },
    {
      "native_vlan": 1,
      "link_state": "down",
      "port_security_enabled": false,
      "speed": {
        "current": 10000,
        "permitted": [
          10000,
          1000
        ]
      },
      "switch_name": "E0:39:D7:90:13:00",
      "read_only": false,
      "uuid": "03734100040c0000933d22eaf1d0b07d",
      "access_port": true,
      "vlan_group_uuids": [],
      "description": "",
      "switch_uuid": "03734100041900000da7e9a28f47d930",
      "admin_state": "disabled",
      "qsfp_mode": "not_applicable",
      "vlans": "",
      "port_label": 3,
      "name": "",
      "permitted_qsfp_modes": [],
      "ungrouped_vlans": ""
    },
    {
      "native_vlan": 1,
      "link_state": "down",
      "port_security_enabled": false,
      "speed": {
        "current": 10000,
        "permitted": [
          10000,
          1000
        ]
      },
      "switch_name": "E0:39:D7:90:12:00",
      "read_only": false,
      "uuid": "03734100040c0000949b4af46ad34de0",
      "access_port": true,
      "vlan_group_uuids": [],
      "description": "",
      "switch_uuid": "0373410004190000dbbdf69d0053d09b",
      "admin_state": "disabled",
      "qsfp_mode": "not_applicable",
      "vlans": "",
      "port_label": 9,
      "name": "",
      "permitted_qsfp_modes": [],
      "ungrouped_vlans": ""
    },
    {
      "native_vlan": 1,
      "link_state": "down",
      "port_security_enabled": false,
      "speed": {
        "current": 10000,
        "permitted": [
          10000,
          1000
        ]
      },
      "switch_name": "E0:39:D7:90:13:00",
      "read_only": false,
      "uuid": "03734100040c00009512fef518070d83",
      "access_port": true,
      "vlan_group_uuids": [],
      "description": "",
      "switch_uuid": "03734100041900000da7e9a28f47d930",
      "admin_state": "disabled",
      "qsfp_mode": "not_applicable",
      "vlans": "",
      "port_label": 6,
      "name": "",
      "permitted_qsfp_modes": [],
      "ungrouped_vlans": ""
    },
    {
      "native_vlan": 1,
      "link_state": "down",
      "port_security_enabled": false,
      "speed": {
        "current": 10000,
        "permitted": [
          10000,
          1000
        ]
      },
      "switch_name": "E0:39:D7:90:12:00",
      "read_only": false,
      "uuid": "03734100040c0000972506757429b288",
      "access_port": true,
      "vlan_group_uuids": [],
      "description": "",
      "switch_uuid": "0373410004190000dbbdf69d0053d09b",
      "admin_state": "disabled",
      "qsfp_mode": "not_applicable",
      "vlans": "",
      "port_label": 28,
      "name": "",
      "permitted_qsfp_modes": [],
      "ungrouped_vlans": ""
    },
    {
      "native_vlan": 1,
      "link_state": "down",
      "port_security_enabled": false,
      "speed": {
        "current": 10000,
        "permitted": [
          10000,
          1000
        ]
      },
      "switch_name": "E0:39:D7:90:12:00",
      "read_only": false,
      "uuid": "03734100040c000099a1405e6cb4c2fe",
      "access_port": true,
      "vlan_group_uuids": [],
      "description": "",
      "switch_uuid": "0373410004190000dbbdf69d0053d09b",
      "admin_state": "disabled",
      "qsfp_mode": "not_applicable",
      "vlans": "",
      "port_label": 6,
      "name": "",
      "permitted_qsfp_modes": [],
      "ungrouped_vlans": ""
    },
    {
      "native_vlan": 1,
      "link_state": "down",
      "port_security_enabled": false,
      "speed": {
        "current": 10000,
        "permitted": [
          10000,
          1000
        ]
      },
      "switch_name": "E0:39:D7:90:13:00",
      "read_only": false,
      "uuid": "03734100040c00009a647a401232b1de",
      "access_port": true,
      "vlan_group_uuids": [],
      "description": "",
      "switch_uuid": "03734100041900000da7e9a28f47d930",
      "admin_state": "disabled",
      "qsfp_mode": "not_applicable",
      "vlans": "",
      "port_label": 26,
      "name": "",
      "permitted_qsfp_modes": [],
      "ungrouped_vlans": ""
    },
    {
      "native_vlan": 1,
      "link_state": "down",
      "port_security_enabled": false,
      "speed": {
        "current": 10000,
        "permitted": [
          10000,
          1000
        ]
      },
      "switch_name": "E0:39:D7:90:12:00",
      "read_only": false,
      "uuid": "03734100040c00009b307eb611f02eda",
      "access_port": true,
      "vlan_group_uuids": [],
      "description": "",
      "switch_uuid": "0373410004190000dbbdf69d0053d09b",
      "admin_state": "disabled",
      "qsfp_mode": "not_applicable",
      "vlans": "",
      "port_label": 41,
      "name": "",
      "permitted_qsfp_modes": [],
      "ungrouped_vlans": ""
    },
    {
      "native_vlan": 1,
      "link_state": "down",
      "port_security_enabled": false,
      "speed": {
        "current": 10000,
        "permitted": [
          10000,
          1000
        ]
      },
      "switch_name": "E0:39:D7:90:12:00",
      "read_only": false,
      "uuid": "03734100040c00009b46ea453ddbe858",
      "access_port": true,
      "vlan_group_uuids": [],
      "description": "",
      "switch_uuid": "0373410004190000dbbdf69d0053d09b",
      "admin_state": "disabled",
      "qsfp_mode": "not_applicable",
      "vlans": "",
      "port_label": 29,
      "name": "",
      "permitted_qsfp_modes": [],
      "ungrouped_vlans": ""
    },
    {
      "native_vlan": 1,
      "link_state": "down",
      "port_security_enabled": false,
      "speed": {
        "current": 10000,
        "permitted": [
          10000,
          1000
        ]
      },
      "switch_name": "E0:39:D7:90:12:00",
      "read_only": false,
      "uuid": "03734100040c0000a22da24d0b518b62",
      "access_port": true,
      "vlan_group_uuids": [],
      "description": "",
      "switch_uuid": "0373410004190000dbbdf69d0053d09b",
      "admin_state": "disabled",
      "qsfp_mode": "not_applicable",
      "vlans": "",
      "port_label": 37,
      "name": "",
      "permitted_qsfp_modes": [],
      "ungrouped_vlans": ""
    },
    {
      "native_vlan": 1,
      "link_state": "down",
      "port_security_enabled": false,
      "speed": {
        "current": 10000,
        "permitted": [
          10000,
          1000
        ]
      },
      "switch_name": "E0:39:D7:90:12:00",
      "read_only": false,
      "uuid": "03734100040c0000a36240cee1fead83",
      "access_port": true,
      "vlan_group_uuids": [],
      "description": "",
      "switch_uuid": "0373410004190000dbbdf69d0053d09b",
      "admin_state": "disabled",
      "qsfp_mode": "not_applicable",
      "vlans": "",
      "port_label": 17,
      "name": "",
      "permitted_qsfp_modes": [],
      "ungrouped_vlans": ""
    },
    {
      "native_vlan": 1,
      "link_state": "down",
      "port_security_enabled": false,
      "speed": {
        "current": 10000,
        "permitted": [
          10000,
          1000
        ]
      },
      "switch_name": "E0:39:D7:90:12:00",
      "read_only": false,
      "uuid": "03734100040c0000a4ced42d38bf8268",
      "access_port": true,
      "vlan_group_uuids": [],
      "description": "",
      "switch_uuid": "0373410004190000dbbdf69d0053d09b",
      "admin_state": "disabled",
      "qsfp_mode": "not_applicable",
      "vlans": "",
      "port_label": 2,
      "name": "",
      "permitted_qsfp_modes": [],
      "ungrouped_vlans": ""
    },
    {
      "native_vlan": 1,
      "link_state": "down",
      "port_security_enabled": false,
      "speed": {
        "current": 10000,
        "permitted": [
          10000,
          1000
        ]
      },
      "switch_name": "E0:39:D7:90:13:00",
      "read_only": false,
      "uuid": "03734100040c0000a6f31a82835dd5e9",
      "access_port": true,
      "vlan_group_uuids": [],
      "description": "",
      "switch_uuid": "03734100041900000da7e9a28f47d930",
      "admin_state": "disabled",
      "qsfp_mode": "not_applicable",
      "vlans": "",
      "port_label": 9,
      "name": "",
      "permitted_qsfp_modes": [],
      "ungrouped_vlans": ""
    },
    {
      "native_vlan": 1,
      "link_state": "down",
      "port_security_enabled": false,
      "speed": {
        "current": 10000,
        "permitted": [
          10000,
          1000
        ]
      },
      "switch_name": "E0:39:D7:90:12:00",
      "read_only": false,
      "uuid": "03734100040c0000ab19c795c0588681",
      "access_port": true,
      "vlan_group_uuids": [],
      "description": "",
      "switch_uuid": "0373410004190000dbbdf69d0053d09b",
      "admin_state": "disabled",
      "qsfp_mode": "not_applicable",
      "vlans": "",
      "port_label": 23,
      "name": "",
      "permitted_qsfp_modes": [],
      "ungrouped_vlans": ""
    },
    {
      "native_vlan": 1,
      "link_state": "down",
      "port_security_enabled": false,
      "speed": {
        "current": 10000,
        "permitted": [
          10000,
          1000
        ]
      },
      "switch_name": "E0:39:D7:90:12:00",
      "read_only": false,
      "uuid": "03734100040c0000af1e73d9a9f7d938",
      "access_port": true,
      "vlan_group_uuids": [],
      "description": "",
      "switch_uuid": "0373410004190000dbbdf69d0053d09b",
      "admin_state": "disabled",
      "qsfp_mode": "not_applicable",
      "vlans": "",
      "port_label": 5,
      "name": "",
      "permitted_qsfp_modes": [],
      "ungrouped_vlans": ""
    },
    {
      "native_vlan": 1,
      "link_state": "down",
      "port_security_enabled": false,
      "speed": {
        "current": 10000,
        "permitted": [
          10000,
          1000
        ]
      },
      "switch_name": "E0:39:D7:90:13:00",
      "read_only": false,
      "uuid": "03734100040c0000b1f252d77cb24295",
      "access_port": true,
      "vlan_group_uuids": [],
      "description": "",
      "switch_uuid": "03734100041900000da7e9a28f47d930",
      "admin_state": "disabled",
      "qsfp_mode": "not_applicable",
      "vlans": "",
      "port_label": 32,
      "name": "",
      "permitted_qsfp_modes": [],
      "ungrouped_vlans": ""
    },
    {
      "native_vlan": 1,
      "link_state": "down",
      "port_security_enabled": false,
      "speed": {
        "current": 10000,
        "permitted": [
          10000,
          1000
        ]
      },
      "switch_name": "E0:39:D7:90:13:00",
      "read_only": false,
      "uuid": "03734100040c0000b27364e88f35c8ed",
      "access_port": true,
      "vlan_group_uuids": [],
      "description": "",
      "switch_uuid": "03734100041900000da7e9a28f47d930",
      "admin_state": "disabled",
      "qsfp_mode": "not_applicable",
      "vlans": "",
      "port_label": 16,
      "name": "",
      "permitted_qsfp_modes": [],
      "ungrouped_vlans": ""
    },
    {
      "native_vlan": 1,
      "link_state": "down",
      "port_security_enabled": false,
      "speed": {
        "current": 10000,
        "permitted": [
          10000,
          1000
        ]
      },
      "switch_name": "E0:39:D7:90:12:00",
      "read_only": false,
      "uuid": "03734100040c0000b8b5c99f552f9ae8",
      "access_port": true,
      "vlan_group_uuids": [],
      "description": "",
      "switch_uuid": "0373410004190000dbbdf69d0053d09b",
      "admin_state": "disabled",
      "qsfp_mode": "not_applicable",
      "vlans": "",
      "port_label": 3,
      "name": "",
      "permitted_qsfp_modes": [],
      "ungrouped_vlans": ""
    },
    {
      "native_vlan": 1,
      "link_state": "down",
      "port_security_enabled": false,
      "speed": {
        "current": 10000,
        "permitted": [
          10000,
          1000
        ]
      },
      "switch_name": "E0:39:D7:90:13:00",
      "read_only": false,
      "uuid": "03734100040c0000b9c0bf0de3e794f9",
      "access_port": true,
      "vlan_group_uuids": [],
      "description": "",
      "switch_uuid": "03734100041900000da7e9a28f47d930",
      "admin_state": "disabled",
      "qsfp_mode": "not_applicable",
      "vlans": "",
      "port_label": 11,
      "name": "",
      "permitted_qsfp_modes": [],
      "ungrouped_vlans": ""
    },
    {
      "native_vlan": 1,
      "link_state": "down",
      "port_security_enabled": false,
      "speed": {
        "current": 10000,
        "permitted": [
          10000,
          1000
        ]
      },
      "switch_name": "E0:39:D7:90:13:00",
      "read_only": false,
      "uuid": "03734100040c0000ba074fa7d6c9ac85",
      "access_port": true,
      "vlan_group_uuids": [],
      "description": "",
      "switch_uuid": "03734100041900000da7e9a28f47d930",
      "admin_state": "disabled",
      "qsfp_mode": "not_applicable",
      "vlans": "",
      "port_label": 48,
      "name": "",
      "permitted_qsfp_modes": [],
      "ungrouped_vlans": ""
    },
    {
      "native_vlan": 1,
      "link_state": "down",
      "port_security_enabled": false,
      "speed": {
        "current": 10000,
        "permitted": [
          10000,
          1000
        ]
      },
      "switch_name": "E0:39:D7:90:13:00",
      "read_only": false,
      "uuid": "03734100040c0000bd2bd19559b4b6d9",
      "access_port": true,
      "vlan_group_uuids": [],
      "description": "",
      "switch_uuid": "03734100041900000da7e9a28f47d930",
      "admin_state": "disabled",
      "qsfp_mode": "not_applicable",
      "vlans": "",
      "port_label": 8,
      "name": "",
      "permitted_qsfp_modes": [],
      "ungrouped_vlans": ""
    },
    {
      "native_vlan": 1,
      "link_state": "down",
      "port_security_enabled": false,
      "speed": {
        "current": 10000,
        "permitted": [
          10000,
          1000
        ]
      },
      "switch_name": "E0:39:D7:90:13:00",
      "read_only": false,
      "uuid": "03734100040c0000c19368204c153ba0",
      "access_port": true,
      "vlan_group_uuids": [],
      "description": "",
      "switch_uuid": "03734100041900000da7e9a28f47d930",
      "admin_state": "disabled",
      "qsfp_mode": "not_applicable",
      "vlans": "",
      "port_label": 30,
      "name": "",
      "permitted_qsfp_modes": [],
      "ungrouped_vlans": ""
    },
    {
      "native_vlan": 1,
      "link_state": "down",
      "port_security_enabled": false,
      "speed": {
        "current": 10000,
        "permitted": [
          10000,
          1000
        ]
      },
      "switch_name": "E0:39:D7:90:13:00",
      "read_only": false,
      "uuid": "03734100040c0000c5c02ef8efdc97f0",
      "access_port": true,
      "vlan_group_uuids": [],
      "description": "",
      "switch_uuid": "03734100041900000da7e9a28f47d930",
      "admin_state": "disabled",
      "qsfp_mode": "not_applicable",
      "vlans": "",
      "port_label": 46,
      "name": "",
      "permitted_qsfp_modes": [],
      "ungrouped_vlans": ""
    },
    {
      "native_vlan": 1,
      "link_state": "down",
      "port_security_enabled": false,
      "speed": {
        "current": 10000,
        "permitted": [
          10000,
          1000
        ]
      },
      "switch_name": "E0:39:D7:90:13:00",
      "read_only": false,
      "uuid": "03734100040c0000c788cca79d88d08e",
      "access_port": true,
      "vlan_group_uuids": [],
      "description": "",
      "switch_uuid": "03734100041900000da7e9a28f47d930",
      "admin_state": "disabled",
      "qsfp_mode": "not_applicable",
      "vlans": "",
      "port_label": 39,
      "name": "",
      "permitted_qsfp_modes": [],
      "ungrouped_vlans": ""
    },
    {
      "native_vlan": 1,
      "link_state": "down",
      "port_security_enabled": false,
      "speed": {
        "current": 10000,
        "permitted": [
          10000,
          1000
        ]
      },
      "switch_name": "E0:39:D7:90:12:00",
      "read_only": false,
      "uuid": "03734100040c0000cc7db0e5abf2e2ee",
      "access_port": true,
      "vlan_group_uuids": [],
      "description": "",
      "switch_uuid": "0373410004190000dbbdf69d0053d09b",
      "admin_state": "disabled",
      "qsfp_mode": "not_applicable",
      "vlans": "",
      "port_label": 45,
      "name": "",
      "permitted_qsfp_modes": [],
      "ungrouped_vlans": ""
    },
    {
      "native_vlan": 1,
      "link_state": "down",
      "port_security_enabled": false,
      "speed": {
        "current": 10000,
        "permitted": [
          10000,
          1000
        ]
      },
      "switch_name": "E0:39:D7:90:12:00",
      "read_only": false,
      "uuid": "03734100040c0000cca7c04699a0d8de",
      "access_port": true,
      "vlan_group_uuids": [],
      "description": "",
      "switch_uuid": "0373410004190000dbbdf69d0053d09b",
      "admin_state": "disabled",
      "qsfp_mode": "not_applicable",
      "vlans": "",
      "port_label": 21,
      "name": "",
      "permitted_qsfp_modes": [],
      "ungrouped_vlans": ""
    },
    {
      "native_vlan": 1,
      "link_state": "down",
      "port_security_enabled": false,
      "speed": {
        "current": 10000,
        "permitted": [
          10000,
          1000
        ]
      },
      "switch_name": "E0:39:D7:90:13:00",
      "read_only": false,
      "uuid": "03734100040c0000d5b1f66f02fdc6a1",
      "access_port": true,
      "vlan_group_uuids": [],
      "description": "",
      "switch_uuid": "03734100041900000da7e9a28f47d930",
      "admin_state": "disabled",
      "qsfp_mode": "not_applicable",
      "vlans": "",
      "port_label": 25,
      "name": "",
      "permitted_qsfp_modes": [],
      "ungrouped_vlans": ""
    },
    {
      "native_vlan": 1,
      "link_state": "down",
      "port_security_enabled": false,
      "speed": {
        "current": 10000,
        "permitted": [
          10000,
          1000
        ]
      },
      "switch_name": "E0:39:D7:90:13:00",
      "read_only": false,
      "uuid": "03734100040c0000d68585040a0d286f",
      "access_port": true,
      "vlan_group_uuids": [],
      "description": "",
      "switch_uuid": "03734100041900000da7e9a28f47d930",
      "admin_state": "disabled",
      "qsfp_mode": "not_applicable",
      "vlans": "",
      "port_label": 22,
      "name": "",
      "permitted_qsfp_modes": [],
      "ungrouped_vlans": ""
    },
    {
      "native_vlan": 1,
      "link_state": "down",
      "port_security_enabled": false,
      "speed": {
        "current": 10000,
        "permitted": [
          10000,
          1000
        ]
      },
      "switch_name": "E0:39:D7:90:12:00",
      "read_only": false,
      "uuid": "03734100040c0000dc07b0057dab8462",
      "access_port": true,
      "vlan_group_uuids": [],
      "description": "",
      "switch_uuid": "0373410004190000dbbdf69d0053d09b",
      "admin_state": "disabled",
      "qsfp_mode": "not_applicable",
      "vlans": "",
      "port_label": 20,
      "name": "",
      "permitted_qsfp_modes": [],
      "ungrouped_vlans": ""
    },
    {
      "native_vlan": 1,
      "link_state": "down",
      "port_security_enabled": false,
      "speed": {
        "current": 10000,
        "permitted": [
          10000,
          1000
        ]
      },
      "switch_name": "E0:39:D7:90:13:00",
      "read_only": false,
      "uuid": "03734100040c0000dfef8e1580b27896",
      "access_port": true,
      "vlan_group_uuids": [],
      "description": "",
      "switch_uuid": "03734100041900000da7e9a28f47d930",
      "admin_state": "disabled",
      "qsfp_mode": "not_applicable",
      "vlans": "",
      "port_label": 35,
      "name": "",
      "permitted_qsfp_modes": [],
      "ungrouped_vlans": ""
    },
    {
      "native_vlan": 1,
      "link_state": "down",
      "port_security_enabled": false,
      "speed": {
        "current": 10000,
        "permitted": [
          10000,
          1000
        ]
      },
      "switch_name": "E0:39:D7:90:13:00",
      "read_only": false,
      "uuid": "03734100040c0000e07a234ce2328941",
      "access_port": true,
      "vlan_group_uuids": [],
      "description": "",
      "switch_uuid": "03734100041900000da7e9a28f47d930",
      "admin_state": "disabled",
      "qsfp_mode": "not_applicable",
      "vlans": "",
      "port_label": 12,
      "name": "",
      "permitted_qsfp_modes": [],
      "ungrouped_vlans": ""
    },
    {
      "native_vlan": 1,
      "link_state": "down",
      "port_security_enabled": false,
      "speed": {
        "current": 10000,
        "permitted": [
          10000,
          1000
        ]
      },
      "switch_name": "E0:39:D7:90:13:00",
      "read_only": false,
      "uuid": "03734100040c0000e0eb2d232f56fc73",
      "access_port": true,
      "vlan_group_uuids": [],
      "description": "",
      "switch_uuid": "03734100041900000da7e9a28f47d930",
      "admin_state": "disabled",
      "qsfp_mode": "not_applicable",
      "vlans": "",
      "port_label": 19,
      "name": "",
      "permitted_qsfp_modes": [],
      "ungrouped_vlans": ""
    },
    {
      "native_vlan": 1,
      "link_state": "down",
      "port_security_enabled": false,
      "speed": {
        "current": 10000,
        "permitted": [
          10000,
          1000
        ]
      },
      "switch_name": "E0:39:D7:90:13:00",
      "read_only": false,
      "uuid": "03734100040c0000e4ef3a3930892b84",
      "access_port": true,
      "vlan_group_uuids": [],
      "description": "",
      "switch_uuid": "03734100041900000da7e9a28f47d930",
      "admin_state": "disabled",
      "qsfp_mode": "not_applicable",
      "vlans": "",
      "port_label": 28,
      "name": "",
      "permitted_qsfp_modes": [],
      "ungrouped_vlans": ""
    },
    {
      "native_vlan": 1,
      "link_state": "down",
      "port_security_enabled": false,
      "speed": {
        "current": 10000,
        "permitted": [
          10000,
          1000
        ]
      },
      "switch_name": "E0:39:D7:90:12:00",
      "read_only": false,
      "uuid": "03734100040c0000e8db028113390b14",
      "access_port": true,
      "vlan_group_uuids": [],
      "description": "",
      "switch_uuid": "0373410004190000dbbdf69d0053d09b",
      "admin_state": "disabled",
      "qsfp_mode": "not_applicable",
      "vlans": "",
      "port_label": 36,
      "name": "",
      "permitted_qsfp_modes": [],
      "ungrouped_vlans": ""
    },
    {
      "native_vlan": 1,
      "link_state": "down",
      "port_security_enabled": false,
      "speed": {
        "current": 10000,
        "permitted": [
          10000,
          1000
        ]
      },
      "switch_name": "E0:39:D7:90:12:00",
      "read_only": false,
      "uuid": "03734100040c0000f1816f8b75099557",
      "access_port": true,
      "vlan_group_uuids": [],
      "description": "",
      "switch_uuid": "0373410004190000dbbdf69d0053d09b",
      "admin_state": "disabled",
      "qsfp_mode": "not_applicable",
      "vlans": "",
      "port_label": 13,
      "name": "",
      "permitted_qsfp_modes": [],
      "ungrouped_vlans": ""
    },
    {
      "native_vlan": 1,
      "link_state": "down",
      "port_security_enabled": false,
      "speed": {
        "current": 10000,
        "permitted": [
          10000,
          1000
        ]
      },
      "switch_name": "E0:39:D7:90:12:00",
      "read_only": false,
      "uuid": "03734100040c0000f5edc6cf33b03c44",
      "access_port": true,
      "vlan_group_uuids": [],
      "description": "",
      "switch_uuid": "0373410004190000dbbdf69d0053d09b",
      "admin_state": "disabled",
      "qsfp_mode": "not_applicable",
      "vlans": "",
      "port_label": 46,
      "name": "",
      "permitted_qsfp_modes": [],
      "ungrouped_vlans": ""
    },
    {
      "native_vlan": 1,
      "link_state": "down",
      "port_security_enabled": false,
      "speed": {
        "current": 10000,
        "permitted": [
          10000,
          1000
        ]
      },
      "switch_name": "E0:39:D7:90:13:00",
      "read_only": false,
      "uuid": "03734100040c0000fd7aea2a4cf6d150",
      "access_port": true,
      "vlan_group_uuids": [],
      "description": "",
      "switch_uuid": "03734100041900000da7e9a28f47d930",
      "admin_state": "disabled",
      "qsfp_mode": "not_applicable",
      "vlans": "",
      "port_label": 40,
      "name": "",
      "permitted_qsfp_modes": [],
      "ungrouped_vlans": ""
    },
    {
      "native_vlan": 1,
      "link_state": "down",
      "port_security_enabled": false,
      "speed": {
        "current": 10000,
        "permitted": [
          10000,
          1000
        ]
      },
      "switch_name": "E0:39:D7:90:12:00",
      "read_only": false,
      "uuid": "03734100040c0000fdd4d80a7878124f",
      "access_port": true,
      "vlan_group_uuids": [],
      "description": "",
      "switch_uuid": "0373410004190000dbbdf69d0053d09b",
      "admin_state": "disabled",
      "qsfp_mode": "not_applicable",
      "vlans": "",
      "port_label": 31,
      "name": "",
      "permitted_qsfp_modes": [],
      "ungrouped_vlans": ""
    },
    {
      "native_vlan": 1,
      "link_state": "down",
      "port_security_enabled": false,
      "speed": {
        "current": 10000,
        "permitted": [
          10000,
          1000
        ]
      },
      "switch_name": "E0:39:D7:90:13:00",
      "read_only": false,
      "uuid": "03734100040c0000fea20e820425a5f0",
      "access_port": true,
      "vlan_group_uuids": [],
      "description": "",
      "switch_uuid": "03734100041900000da7e9a28f47d930",
      "admin_state": "disabled",
      "qsfp_mode": "not_applicable",
      "vlans": "",
      "port_label": 7,
      "name": "",
      "permitted_qsfp_modes": [],
      "ungrouped_vlans": ""
    }
  ],
  "time": "20.394mS"
}